simulation/qsim/Clock.msim.vcd
$comment
	File created using the following command:
		vcd file Clock.msim.vcd -direction
$end
$date
	Sun Oct 18 21:01:44 2020
$end
$version
	ModelSim Version 2020.1
$end
$timescale
	1ps
$end

$scope module processador_vhd_vec_tst $end
$var wire 1 ! adress [7] $end
$var wire 1 " adress [6] $end
$var wire 1 # adress [5] $end
$var wire 1 $ adress [4] $end
$var wire 1 % adress [3] $end
$var wire 1 & adress [2] $end
$var wire 1 ' adress [1] $end
$var wire 1 ( adress [0] $end
$var wire 1 ) clk $end
$var wire 1 * dataIn [7] $end
$var wire 1 + dataIn [6] $end
$var wire 1 , dataIn [5] $end
$var wire 1 - dataIn [4] $end
$var wire 1 . dataIn [3] $end
$var wire 1 / dataIn [2] $end
$var wire 1 0 dataIn [1] $end
$var wire 1 1 dataIn [0] $end
$var wire 1 2 dataOut [7] $end
$var wire 1 3 dataOut [6] $end
$var wire 1 4 dataOut [5] $end
$var wire 1 5 dataOut [4] $end
$var wire 1 6 dataOut [3] $end
$var wire 1 7 dataOut [2] $end
$var wire 1 8 dataOut [1] $end
$var wire 1 9 dataOut [0] $end
$var wire 1 : habEscritaMEM $end
$var wire 1 ; habEscritaReg $end
$var wire 1 < habLeituraMEM $end
$var wire 1 = pinTest [7] $end
$var wire 1 > pinTest [6] $end
$var wire 1 ? pinTest [5] $end
$var wire 1 @ pinTest [4] $end
$var wire 1 A pinTest [3] $end
$var wire 1 B pinTest [2] $end
$var wire 1 C pinTest [1] $end
$var wire 1 D pinTest [0] $end
$var wire 1 E pinTestA [7] $end
$var wire 1 F pinTestA [6] $end
$var wire 1 G pinTestA [5] $end
$var wire 1 H pinTestA [4] $end
$var wire 1 I pinTestA [3] $end
$var wire 1 J pinTestA [2] $end
$var wire 1 K pinTestA [1] $end
$var wire 1 L pinTestA [0] $end
$var wire 1 M pinTestB [7] $end
$var wire 1 N pinTestB [6] $end
$var wire 1 O pinTestB [5] $end
$var wire 1 P pinTestB [4] $end
$var wire 1 Q pinTestB [3] $end
$var wire 1 R pinTestB [2] $end
$var wire 1 S pinTestB [1] $end
$var wire 1 T pinTestB [0] $end
$var wire 1 U pinTestflagZero $end
$var wire 1 V pinTestSaidaULA [7] $end
$var wire 1 W pinTestSaidaULA [6] $end
$var wire 1 X pinTestSaidaULA [5] $end
$var wire 1 Y pinTestSaidaULA [4] $end
$var wire 1 Z pinTestSaidaULA [3] $end
$var wire 1 [ pinTestSaidaULA [2] $end
$var wire 1 \ pinTestSaidaULA [1] $end
$var wire 1 ] pinTestSaidaULA [0] $end

$scope module i1 $end
$var wire 1 ^ gnd $end
$var wire 1 _ vcc $end
$var wire 1 ` unknown $end
$var wire 1 a devoe $end
$var wire 1 b devclrn $end
$var wire 1 c devpor $end
$var wire 1 d ww_devoe $end
$var wire 1 e ww_devclrn $end
$var wire 1 f ww_devpor $end
$var wire 1 g ww_clk $end
$var wire 1 h ww_dataIn [7] $end
$var wire 1 i ww_dataIn [6] $end
$var wire 1 j ww_dataIn [5] $end
$var wire 1 k ww_dataIn [4] $end
$var wire 1 l ww_dataIn [3] $end
$var wire 1 m ww_dataIn [2] $end
$var wire 1 n ww_dataIn [1] $end
$var wire 1 o ww_dataIn [0] $end
$var wire 1 p ww_dataOut [7] $end
$var wire 1 q ww_dataOut [6] $end
$var wire 1 r ww_dataOut [5] $end
$var wire 1 s ww_dataOut [4] $end
$var wire 1 t ww_dataOut [3] $end
$var wire 1 u ww_dataOut [2] $end
$var wire 1 v ww_dataOut [1] $end
$var wire 1 w ww_dataOut [0] $end
$var wire 1 x ww_adress [7] $end
$var wire 1 y ww_adress [6] $end
$var wire 1 z ww_adress [5] $end
$var wire 1 { ww_adress [4] $end
$var wire 1 | ww_adress [3] $end
$var wire 1 } ww_adress [2] $end
$var wire 1 ~ ww_adress [1] $end
$var wire 1 !! ww_adress [0] $end
$var wire 1 "! ww_habEscritaReg $end
$var wire 1 #! ww_habEscritaMEM $end
$var wire 1 $! ww_habLeituraMEM $end
$var wire 1 %! ww_pinTest [7] $end
$var wire 1 &! ww_pinTest [6] $end
$var wire 1 '! ww_pinTest [5] $end
$var wire 1 (! ww_pinTest [4] $end
$var wire 1 )! ww_pinTest [3] $end
$var wire 1 *! ww_pinTest [2] $end
$var wire 1 +! ww_pinTest [1] $end
$var wire 1 ,! ww_pinTest [0] $end
$var wire 1 -! ww_pinTestA [7] $end
$var wire 1 .! ww_pinTestA [6] $end
$var wire 1 /! ww_pinTestA [5] $end
$var wire 1 0! ww_pinTestA [4] $end
$var wire 1 1! ww_pinTestA [3] $end
$var wire 1 2! ww_pinTestA [2] $end
$var wire 1 3! ww_pinTestA [1] $end
$var wire 1 4! ww_pinTestA [0] $end
$var wire 1 5! ww_pinTestB [7] $end
$var wire 1 6! ww_pinTestB [6] $end
$var wire 1 7! ww_pinTestB [5] $end
$var wire 1 8! ww_pinTestB [4] $end
$var wire 1 9! ww_pinTestB [3] $end
$var wire 1 :! ww_pinTestB [2] $end
$var wire 1 ;! ww_pinTestB [1] $end
$var wire 1 <! ww_pinTestB [0] $end
$var wire 1 =! ww_pinTestSaidaULA [7] $end
$var wire 1 >! ww_pinTestSaidaULA [6] $end
$var wire 1 ?! ww_pinTestSaidaULA [5] $end
$var wire 1 @! ww_pinTestSaidaULA [4] $end
$var wire 1 A! ww_pinTestSaidaULA [3] $end
$var wire 1 B! ww_pinTestSaidaULA [2] $end
$var wire 1 C! ww_pinTestSaidaULA [1] $end
$var wire 1 D! ww_pinTestSaidaULA [0] $end
$var wire 1 E! ww_pinTestflagZero $end
$var wire 1 F! \clk~input_o\ $end
$var wire 1 G! \clk~inputCLKENA0_outclk\ $end
$var wire 1 H! \inc|Add0~1_sumout\ $end
$var wire 1 I! \inc|Add0~26\ $end
$var wire 1 J! \inc|Add0~22\ $end
$var wire 1 K! \inc|Add0~5_sumout\ $end
$var wire 1 L! \PC|DOUT[0]~DUPLICATE_q\ $end
$var wire 1 M! \ROM|memROM~10_combout\ $end
$var wire 1 N! \ROM|memROM~12_combout\ $end
$var wire 1 O! \ROM|memROM~9_combout\ $end
$var wire 1 P! \ROM|memROM~11_combout\ $end
$var wire 1 Q! \UC|Equal0~0_combout\ $end
$var wire 1 R! \UC|palavraControle[3]~0_combout\ $end
$var wire 1 S! \UC|Equal5~0_combout\ $end
$var wire 1 T! \dataIn[1]~input_o\ $end
$var wire 1 U! \ROM|memROM~4_combout\ $end
$var wire 1 V! \ROM|memROM~5_combout\ $end
$var wire 1 W! \PC|DOUT[2]~DUPLICATE_q\ $end
$var wire 1 X! \Registradores|registrador~215_combout\ $end
$var wire 1 Y! \Registradores|registrador~30_q\ $end
$var wire 1 Z! \Registradores|registrador~216_combout\ $end
$var wire 1 [! \Registradores|registrador~38_q\ $end
$var wire 1 \! \ROM|memROM~13_combout\ $end
$var wire 1 ]! \Registradores|registrador~174_combout\ $end
$var wire 1 ^! \UC|Equal3~0_combout\ $end
$var wire 1 _! \dataIn[0]~input_o\ $end
$var wire 1 `! \ULA|Add0~34_cout\ $end
$var wire 1 a! \ULA|Add0~1_sumout\ $end
$var wire 1 b! \ULA|saida[0]~0_combout\ $end
$var wire 1 c! \MUX_ULA|saida_MUX[0]~0_combout\ $end
$var wire 1 d! \Registradores|registrador~37_q\ $end
$var wire 1 e! \Registradores|registrador~29_q\ $end
$var wire 1 f! \Registradores|registrador~173_combout\ $end
$var wire 1 g! \ULA|Add0~2\ $end
$var wire 1 h! \ULA|Add0~5_sumout\ $end
$var wire 1 i! \ULA|saida[1]~1_combout\ $end
$var wire 1 j! \MUX_ULA|saida_MUX[1]~1_combout\ $end
$var wire 1 k! \Registradores|registrador~214_combout\ $end
$var wire 1 l! \Registradores|registrador~46_q\ $end
$var wire 1 m! \ROM|memROM~14_combout\ $end
$var wire 1 n! \ROM|memROM~15_combout\ $end
$var wire 1 o! \Registradores|registrador~213_combout\ $end
$var wire 1 p! \Registradores|registrador~22_q\ $end
$var wire 1 q! \Registradores|registrador~185_combout\ $end
$var wire 1 r! \Registradores|registrador~145_combout\ $end
$var wire 1 s! \ULA|Equal8~0_combout\ $end
$var wire 1 t! \dataIn[4]~input_o\ $end
$var wire 1 u! \Registradores|registrador~33_q\ $end
$var wire 1 v! \Registradores|registrador~41_q\ $end
$var wire 1 w! \Registradores|registrador~177_combout\ $end
$var wire 1 x! \dataIn[3]~input_o\ $end
$var wire 1 y! \Registradores|registrador~48_q\ $end
$var wire 1 z! \Registradores|registrador~24_q\ $end
$var wire 1 {! \Registradores|registrador~32_q\ $end
$var wire 1 |! \Registradores|registrador~193_combout\ $end
$var wire 1 }! \Registradores|registrador~153_combout\ $end
$var wire 1 ~! \dataIn[2]~input_o\ $end
$var wire 1 !" \Registradores|registrador~31_q\ $end
$var wire 1 "" \Registradores|registrador~39_q\ $end
$var wire 1 #" \Registradores|registrador~175_combout\ $end
$var wire 1 $" \ULA|Add0~6\ $end
$var wire 1 %" \ULA|Add0~9_sumout\ $end
$var wire 1 &" \ULA|saida[2]~2_combout\ $end
$var wire 1 '" \MUX_ULA|saida_MUX[2]~2_combout\ $end
$var wire 1 (" \Registradores|registrador~47_q\ $end
$var wire 1 )" \Registradores|registrador~23_q\ $end
$var wire 1 *" \Registradores|registrador~189_combout\ $end
$var wire 1 +" \Registradores|registrador~149_combout\ $end
$var wire 1 ," \ULA|Add0~10\ $end
$var wire 1 -" \ULA|Add0~13_sumout\ $end
$var wire 1 ." \ULA|saida[3]~3_combout\ $end
$var wire 1 /" \MUX_ULA|saida_MUX[3]~3_combout\ $end
$var wire 1 0" \Registradores|registrador~40_q\ $end
$var wire 1 1" \Registradores|registrador~176_combout\ $end
$var wire 1 2" \ULA|Add0~14\ $end
$var wire 1 3" \ULA|Add0~17_sumout\ $end
$var wire 1 4" \ULA|saida[4]~4_combout\ $end
$var wire 1 5" \MUX_ULA|saida_MUX[4]~4_combout\ $end
$var wire 1 6" \Registradores|registrador~49_q\ $end
$var wire 1 7" \Registradores|registrador~25_q\ $end
$var wire 1 8" \Registradores|registrador~197_combout\ $end
$var wire 1 9" \Registradores|registrador~157_combout\ $end
$var wire 1 :" \dataIn[5]~input_o\ $end
$var wire 1 ;" \Registradores|registrador~42_q\ $end
$var wire 1 <" \Registradores|registrador~34_q\ $end
$var wire 1 =" \Registradores|registrador~178_combout\ $end
$var wire 1 >" \ULA|Add0~18\ $end
$var wire 1 ?" \ULA|Add0~21_sumout\ $end
$var wire 1 @" \MUX_ULA|saida_MUX[5]~5_combout\ $end
$var wire 1 A" \Registradores|registrador~50_q\ $end
$var wire 1 B" \Registradores|registrador~26_q\ $end
$var wire 1 C" \Registradores|registrador~201_combout\ $end
$var wire 1 D" \Registradores|registrador~161_combout\ $end
$var wire 1 E" \ULA|Equal8~1_combout\ $end
$var wire 1 F" \ULA|Equal8~2_combout\ $end
$var wire 1 G" \dataIn[6]~input_o\ $end
$var wire 1 H" \Registradores|registrador~43_q\ $end
$var wire 1 I" \Registradores|registrador~35_q\ $end
$var wire 1 J" \Registradores|registrador~179_combout\ $end
$var wire 1 K" \ULA|Add0~22\ $end
$var wire 1 L" \ULA|Add0~25_sumout\ $end
$var wire 1 M" \MUX_ULA|saida_MUX[6]~6_combout\ $end
$var wire 1 N" \Registradores|registrador~51_q\ $end
$var wire 1 O" \Registradores|registrador~27_q\ $end
$var wire 1 P" \Registradores|registrador~205_combout\ $end
$var wire 1 Q" \Registradores|registrador~165_combout\ $end
$var wire 1 R" \dataIn[7]~input_o\ $end
$var wire 1 S" \Registradores|registrador~36_q\ $end
$var wire 1 T" \Registradores|registrador~44_q\ $end
$var wire 1 U" \Registradores|registrador~180_combout\ $end
$var wire 1 V" \ULA|Add0~26\ $end
$var wire 1 W" \ULA|Add0~29_sumout\ $end
$var wire 1 X" \MUX_ULA|saida_MUX[7]~7_combout\ $end
$var wire 1 Y" \Registradores|registrador~52_q\ $end
$var wire 1 Z" \Registradores|registrador~28_q\ $end
$var wire 1 [" \Registradores|registrador~209_combout\ $end
$var wire 1 \" \Registradores|registrador~169_combout\ $end
$var wire 1 ]" \ULA|Equal8~3_combout\ $end
$var wire 1 ^" \flipflop|data_out~0_combout\ $end
$var wire 1 _" \flipflop|data_out~q\ $end
$var wire 1 `" \comb~0_combout\ $end
$var wire 1 a" \inc|Add0~6\ $end
$var wire 1 b" \inc|Add0~9_sumout\ $end
$var wire 1 c" \~GND~combout\ $end
$var wire 1 d" \inc|Add0~10\ $end
$var wire 1 e" \inc|Add0~17_sumout\ $end
$var wire 1 f" \inc|Add0~18\ $end
$var wire 1 g" \inc|Add0~13_sumout\ $end
$var wire 1 h" \ROM|memROM~0_combout\ $end
$var wire 1 i" \ROM|memROM~6_combout\ $end
$var wire 1 j" \ROM|memROM~7_combout\ $end
$var wire 1 k" \inc|Add0~21_sumout\ $end
$var wire 1 l" \PC|DOUT[3]~DUPLICATE_q\ $end
$var wire 1 m" \ROM|memROM~1_combout\ $end
$var wire 1 n" \inc|Add0~2\ $end
$var wire 1 o" \inc|Add0~30\ $end
$var wire 1 p" \inc|Add0~25_sumout\ $end
$var wire 1 q" \ROM|memROM~2_combout\ $end
$var wire 1 r" \ROM|memROM~3_combout\ $end
$var wire 1 s" \inc|Add0~29_sumout\ $end
$var wire 1 t" \PC|DOUT[1]~DUPLICATE_q\ $end
$var wire 1 u" \ROM|memROM~8_combout\ $end
$var wire 1 v" \Registradores|registrador~45_q\ $end
$var wire 1 w" \Registradores|registrador~21_q\ $end
$var wire 1 x" \Registradores|registrador~181_combout\ $end
$var wire 1 y" \Registradores|registrador~141_combout\ $end
$var wire 1 z" \UC|Equal7~0_combout\ $end
$var wire 1 {" \PC|DOUT[5]~DUPLICATE_q\ $end
$var wire 1 |" \ULA|saida[5]~5_combout\ $end
$var wire 1 }" \ULA|saida[6]~6_combout\ $end
$var wire 1 ~" \ULA|saida[7]~7_combout\ $end
$var wire 1 !# \ULA|Equal8~4_combout\ $end
$var wire 1 "# \PC|DOUT\ [7] $end
$var wire 1 ## \PC|DOUT\ [6] $end
$var wire 1 $# \PC|DOUT\ [5] $end
$var wire 1 %# \PC|DOUT\ [4] $end
$var wire 1 &# \PC|DOUT\ [3] $end
$var wire 1 '# \PC|DOUT\ [2] $end
$var wire 1 (# \PC|DOUT\ [1] $end
$var wire 1 )# \PC|DOUT\ [0] $end
$var wire 1 *# \UC|palavraControle\ [10] $end
$var wire 1 +# \UC|palavraControle\ [9] $end
$var wire 1 ,# \UC|palavraControle\ [8] $end
$var wire 1 -# \UC|palavraControle\ [7] $end
$var wire 1 .# \UC|palavraControle\ [6] $end
$var wire 1 /# \UC|palavraControle\ [5] $end
$var wire 1 0# \UC|palavraControle\ [4] $end
$var wire 1 1# \UC|palavraControle\ [3] $end
$var wire 1 2# \UC|palavraControle\ [2] $end
$var wire 1 3# \UC|palavraControle\ [1] $end
$var wire 1 4# \UC|palavraControle\ [0] $end
$var wire 1 5# \ROM|ALT_INV_memROM~1_combout\ $end
$var wire 1 6# \ROM|ALT_INV_memROM~0_combout\ $end
$var wire 1 7# \Registradores|ALT_INV_registrador~209_combout\ $end
$var wire 1 8# \Registradores|ALT_INV_registrador~205_combout\ $end
$var wire 1 9# \Registradores|ALT_INV_registrador~201_combout\ $end
$var wire 1 :# \Registradores|ALT_INV_registrador~197_combout\ $end
$var wire 1 ;# \Registradores|ALT_INV_registrador~193_combout\ $end
$var wire 1 <# \Registradores|ALT_INV_registrador~189_combout\ $end
$var wire 1 =# \Registradores|ALT_INV_registrador~185_combout\ $end
$var wire 1 ># \Registradores|ALT_INV_registrador~181_combout\ $end
$var wire 1 ?# \ULA|ALT_INV_Add0~29_sumout\ $end
$var wire 1 @# \ULA|ALT_INV_Add0~25_sumout\ $end
$var wire 1 A# \ULA|ALT_INV_Add0~21_sumout\ $end
$var wire 1 B# \ULA|ALT_INV_Add0~17_sumout\ $end
$var wire 1 C# \ULA|ALT_INV_Add0~13_sumout\ $end
$var wire 1 D# \ULA|ALT_INV_Add0~9_sumout\ $end
$var wire 1 E# \ULA|ALT_INV_Add0~5_sumout\ $end
$var wire 1 F# \ULA|ALT_INV_Add0~1_sumout\ $end
$var wire 1 G# \PC|ALT_INV_DOUT\ [7] $end
$var wire 1 H# \PC|ALT_INV_DOUT\ [6] $end
$var wire 1 I# \PC|ALT_INV_DOUT\ [5] $end
$var wire 1 J# \PC|ALT_INV_DOUT\ [4] $end
$var wire 1 K# \PC|ALT_INV_DOUT\ [3] $end
$var wire 1 L# \PC|ALT_INV_DOUT\ [2] $end
$var wire 1 M# \PC|ALT_INV_DOUT\ [1] $end
$var wire 1 N# \PC|ALT_INV_DOUT\ [0] $end
$var wire 1 O# \Registradores|ALT_INV_registrador~169_combout\ $end
$var wire 1 P# \Registradores|ALT_INV_registrador~165_combout\ $end
$var wire 1 Q# \Registradores|ALT_INV_registrador~161_combout\ $end
$var wire 1 R# \Registradores|ALT_INV_registrador~157_combout\ $end
$var wire 1 S# \Registradores|ALT_INV_registrador~153_combout\ $end
$var wire 1 T# \Registradores|ALT_INV_registrador~149_combout\ $end
$var wire 1 U# \Registradores|ALT_INV_registrador~145_combout\ $end
$var wire 1 V# \Registradores|ALT_INV_registrador~141_combout\ $end
$var wire 1 W# \PC|ALT_INV_DOUT[1]~DUPLICATE_q\ $end
$var wire 1 X# \PC|ALT_INV_DOUT[2]~DUPLICATE_q\ $end
$var wire 1 Y# \PC|ALT_INV_DOUT[3]~DUPLICATE_q\ $end
$var wire 1 Z# \PC|ALT_INV_DOUT[0]~DUPLICATE_q\ $end
$var wire 1 [# \ALT_INV_dataIn[7]~input_o\ $end
$var wire 1 \# \ALT_INV_dataIn[6]~input_o\ $end
$var wire 1 ]# \ALT_INV_dataIn[5]~input_o\ $end
$var wire 1 ^# \ALT_INV_dataIn[4]~input_o\ $end
$var wire 1 _# \ALT_INV_dataIn[3]~input_o\ $end
$var wire 1 `# \ALT_INV_dataIn[2]~input_o\ $end
$var wire 1 a# \ALT_INV_dataIn[1]~input_o\ $end
$var wire 1 b# \ALT_INV_dataIn[0]~input_o\ $end
$var wire 1 c# \UC|ALT_INV_Equal0~0_combout\ $end
$var wire 1 d# \Registradores|ALT_INV_registrador~28_q\ $end
$var wire 1 e# \Registradores|ALT_INV_registrador~27_q\ $end
$var wire 1 f# \Registradores|ALT_INV_registrador~26_q\ $end
$var wire 1 g# \Registradores|ALT_INV_registrador~25_q\ $end
$var wire 1 h# \Registradores|ALT_INV_registrador~24_q\ $end
$var wire 1 i# \Registradores|ALT_INV_registrador~23_q\ $end
$var wire 1 j# \Registradores|ALT_INV_registrador~22_q\ $end
$var wire 1 k# \ROM|ALT_INV_memROM~15_combout\ $end
$var wire 1 l# \Registradores|ALT_INV_registrador~21_q\ $end
$var wire 1 m# \UC|ALT_INV_Equal3~0_combout\ $end
$var wire 1 n# \UC|ALT_INV_Equal5~0_combout\ $end
$var wire 1 o# \flipflop|ALT_INV_data_out~q\ $end
$var wire 1 p# \Registradores|ALT_INV_registrador~52_q\ $end
$var wire 1 q# \Registradores|ALT_INV_registrador~51_q\ $end
$var wire 1 r# \Registradores|ALT_INV_registrador~50_q\ $end
$var wire 1 s# \Registradores|ALT_INV_registrador~49_q\ $end
$var wire 1 t# \Registradores|ALT_INV_registrador~48_q\ $end
$var wire 1 u# \Registradores|ALT_INV_registrador~47_q\ $end
$var wire 1 v# \Registradores|ALT_INV_registrador~46_q\ $end
$var wire 1 w# \ROM|ALT_INV_memROM~14_combout\ $end
$var wire 1 x# \Registradores|ALT_INV_registrador~45_q\ $end
$var wire 1 y# \ULA|ALT_INV_Equal8~3_combout\ $end
$var wire 1 z# \ULA|ALT_INV_Equal8~2_combout\ $end
$var wire 1 {# \ULA|ALT_INV_Equal8~1_combout\ $end
$var wire 1 |# \ULA|ALT_INV_Equal8~0_combout\ $end
$var wire 1 }# \ULA|ALT_INV_saida[4]~4_combout\ $end
$var wire 1 ~# \ULA|ALT_INV_saida[3]~3_combout\ $end
$var wire 1 !$ \ULA|ALT_INV_saida[2]~2_combout\ $end
$var wire 1 "$ \ULA|ALT_INV_saida[1]~1_combout\ $end
$var wire 1 #$ \ULA|ALT_INV_saida[0]~0_combout\ $end
$var wire 1 $$ \UC|ALT_INV_palavraControle[3]~0_combout\ $end
$var wire 1 %$ \Registradores|ALT_INV_registrador~180_combout\ $end
$var wire 1 &$ \Registradores|ALT_INV_registrador~36_q\ $end
$var wire 1 '$ \Registradores|ALT_INV_registrador~44_q\ $end
$var wire 1 ($ \Registradores|ALT_INV_registrador~179_combout\ $end
$var wire 1 )$ \Registradores|ALT_INV_registrador~35_q\ $end
$var wire 1 *$ \Registradores|ALT_INV_registrador~43_q\ $end
$var wire 1 +$ \Registradores|ALT_INV_registrador~178_combout\ $end
$var wire 1 ,$ \Registradores|ALT_INV_registrador~34_q\ $end
$var wire 1 -$ \Registradores|ALT_INV_registrador~42_q\ $end
$var wire 1 .$ \Registradores|ALT_INV_registrador~177_combout\ $end
$var wire 1 /$ \Registradores|ALT_INV_registrador~33_q\ $end
$var wire 1 0$ \Registradores|ALT_INV_registrador~41_q\ $end
$var wire 1 1$ \Registradores|ALT_INV_registrador~176_combout\ $end
$var wire 1 2$ \Registradores|ALT_INV_registrador~32_q\ $end
$var wire 1 3$ \Registradores|ALT_INV_registrador~40_q\ $end
$var wire 1 4$ \Registradores|ALT_INV_registrador~175_combout\ $end
$var wire 1 5$ \Registradores|ALT_INV_registrador~31_q\ $end
$var wire 1 6$ \Registradores|ALT_INV_registrador~39_q\ $end
$var wire 1 7$ \Registradores|ALT_INV_registrador~174_combout\ $end
$var wire 1 8$ \Registradores|ALT_INV_registrador~30_q\ $end
$var wire 1 9$ \Registradores|ALT_INV_registrador~38_q\ $end
$var wire 1 :$ \Registradores|ALT_INV_registrador~173_combout\ $end
$var wire 1 ;$ \Registradores|ALT_INV_registrador~29_q\ $end
$var wire 1 <$ \Registradores|ALT_INV_registrador~37_q\ $end
$var wire 1 =$ \ROM|ALT_INV_memROM~13_combout\ $end
$var wire 1 >$ \ROM|ALT_INV_memROM~12_combout\ $end
$var wire 1 ?$ \ROM|ALT_INV_memROM~11_combout\ $end
$var wire 1 @$ \ROM|ALT_INV_memROM~10_combout\ $end
$var wire 1 A$ \ROM|ALT_INV_memROM~9_combout\ $end
$var wire 1 B$ \ROM|ALT_INV_memROM~8_combout\ $end
$var wire 1 C$ \ROM|ALT_INV_memROM~7_combout\ $end
$var wire 1 D$ \ROM|ALT_INV_memROM~6_combout\ $end
$var wire 1 E$ \ROM|ALT_INV_memROM~5_combout\ $end
$var wire 1 F$ \ROM|ALT_INV_memROM~4_combout\ $end
$var wire 1 G$ \ROM|ALT_INV_memROM~3_combout\ $end
$var wire 1 H$ \ROM|ALT_INV_memROM~2_combout\ $end
$upscope $end
$upscope $end
$enddefinitions $end
#0
$dumpvars
0)
0:
0;
0<
1U
0^
1_
x`
1a
1b
1c
1d
1e
1f
0g
0"!
0#!
0$!
1E!
0F!
0G!
1H!
0I!
0J!
0K!
0L!
0M!
0N!
0O!
0P!
0Q!
0R!
0S!
0T!
0U!
0V!
0W!
0X!
0Y!
0Z!
0[!
0\!
0]!
0^!
0_!
1`!
0a!
0b!
0c!
0d!
0e!
0f!
1g!
0h!
0i!
0j!
0k!
0l!
0m!
0n!
0o!
0p!
0q!
0r!
1s!
0t!
0u!
0v!
0w!
0x!
0y!
0z!
0{!
0|!
0}!
0~!
0!"
0""
0#"
1$"
0%"
0&"
0'"
0("
0)"
0*"
0+"
1,"
0-"
0."
0/"
00"
01"
12"
03"
04"
05"
06"
07"
08"
09"
0:"
0;"
0<"
0="
1>"
0?"
0@"
0A"
0B"
0C"
0D"
1E"
1F"
0G"
0H"
0I"
0J"
1K"
0L"
0M"
0N"
0O"
0P"
0Q"
0R"
0S"
0T"
0U"
1V"
0W"
0X"
0Y"
0Z"
0["
0\"
1]"
0^"
0_"
0`"
0a"
0b"
0c"
0d"
0e"
0f"
0g"
1h"
0i"
0j"
0k"
0l"
0m"
0n"
0o"
0p"
0q"
0r"
0s"
0t"
0u"
0v"
0w"
0x"
0y"
0z"
0{"
0|"
0}"
0~"
1!#
15#
06#
17#
18#
19#
1:#
1;#
1<#
1=#
1>#
1?#
1@#
1A#
1B#
1C#
1D#
1E#
1F#
1O#
1P#
1Q#
1R#
1S#
1T#
1U#
1V#
1W#
1X#
1Y#
1Z#
1[#
1\#
1]#
1^#
1_#
1`#
1a#
1b#
1c#
1d#
1e#
1f#
1g#
1h#
1i#
1j#
1k#
1l#
1m#
1n#
1o#
1p#
1q#
1r#
1s#
1t#
1u#
1v#
1w#
1x#
0y#
0z#
0{#
0|#
1}#
1~#
1!$
1"$
1#$
1$$
1%$
1&$
1'$
1($
1)$
1*$
1+$
1,$
1-$
1.$
1/$
10$
11$
12$
13$
14$
15$
16$
17$
18$
19$
1:$
1;$
1<$
1=$
1>$
1?$
1@$
1A$
1B$
1C$
1D$
1E$
1F$
1G$
1H$
0*
0+
0,
0-
0.
0/
00
01
0h
0i
0j
0k
0l
0m
0n
0o
0p
0q
0r
0s
0t
0u
0v
0w
0x
0y
0z
0{
0|
0}
0~
0!!
0%!
0&!
0'!
0(!
0)!
0*!
0+!
0,!
0-!
0.!
0/!
00!
01!
02!
03!
04!
05!
06!
07!
08!
09!
0:!
0;!
0<!
0=!
0>!
0?!
0@!
0A!
0B!
0C!
0D!
0"#
0##
0$#
0%#
0&#
0'#
0(#
0)#
x*#
x+#
x,#
x-#
x.#
0/#
x0#
x1#
x2#
x3#
x4#
1G#
1H#
1I#
1J#
1K#
1L#
1M#
1N#
0!
0"
0#
0$
0%
0&
0'
0(
02
03
04
05
06
07
08
09
0=
0>
0?
0@
0A
0B
0C
0D
0E
0F
0G
0H
0I
0J
0K
0L
0M
0N
0O
0P
0Q
0R
0S
0T
0V
0W
0X
0Y
0Z
0[
0\
0]
$end
#30000
1)
1g
1F!
1G!
1L!
1)#
0N#
0Z#
1N!
1O!
1P!
1q"
0H!
1n"
1U!
1o!
1i"
0D$
0F$
0H$
0?$
0A$
0>$
1,!
1s"
1S!
1/#
1r"
1V!
1j"
1D
0C$
0E$
0G$
0n#
1j!
1'"
1/"
1|
1}
1~
1"!
1'
1&
1%
1;
#60000
0)
0g
0F!
0G!
#90000
1)
1g
1F!
1G!
0L!
1p!
1z!
1)"
0)#
1(#
1t"
0W#
0M#
1N#
0i#
0h#
0j#
1Z#
1H!
0n"
0s"
1o"
1X!
0o!
1+!
0,!
1p"
1s"
0o"
0D
1C
0p"
#120000
0)
0g
0F!
0G!
#150000
1)
1g
1F!
1G!
1L!
1Y!
1{!
1!"
1)#
0N#
05$
02$
08$
0Z#
1M!
0N!
0O!
0P!
1n!
0q"
0H!
1n"
0U!
0X!
1\!
0i"
1D$
0=$
1F$
1H$
0k#
1?$
1A$
1>$
0@$
1,!
0s"
1o"
1Q!
1R!
0S!
0/#
1q!
1|!
1*"
0r"
0V!
1]!
1#"
11"
0j"
1D
1p"
1C$
01$
04$
07$
1E$
1G$
0<#
0;#
0=#
1n#
0$$
0c#
1^"
1r!
1}!
1+"
0j!
0'"
1h!
0$"
1%"
0,"
1-"
02"
0/"
0C#
0D#
0E#
0T#
0S#
0U#
0|
19!
1:!
1;!
0}
0~
0"!
13"
0>"
0-"
0%"
0h!
1$"
1-"
1%"
1i!
0s!
1&"
1."
0F"
1D#
1C#
0B#
0'
0&
0%
1S
1R
1Q
0;
1?"
0K"
1z#
0~#
0!$
1|#
0"$
0D#
0C#
1E#
1u
12!
1t
11!
1v
13!
14"
0E"
0."
0&"
1F"
0%"
1,"
0A#
0i!
1s!
1."
1&"
0F"
1j!
1'"
1/"
0^"
0!#
1L"
0V"
1D#
0z#
1!$
1~#
1{#
0}#
18
17
16
1K
1J
1I
1@"
1|"
0-"
12"
0@#
1z#
0!$
0~#
0|#
1"$
1A!
1B!
1C!
15"
0/"
0'"
0&"
1W"
1C#
0j!
1/"
1'"
1M"
0]"
1}"
03"
1>"
0?#
1!$
1\
1[
1Z
0B!
0A!
1@!
0."
1F"
1B#
1y#
0E!
1B!
1A!
0C!
0'"
1X"
1~"
0?"
1K"
0z#
1~#
0[
0Z
1Y
1?!
04"
1A#
0U
0\
1[
1Z
0B!
0/"
0L"
1V"
1}#
1X
1>!
0@"
1E"
0|"
1@#
0[
0A!
05"
0W"
0{#
1W
1=!
0M"
0}"
1?#
0Z
0@!
1V
0X"
1]"
0~"
0Y
0?!
0y#
0X
0>!
1^"
1!#
0W
0=!
0V
1E!
1U
#180000
0)
0g
0F!
0G!
#210000
1)
1g
1F!
1G!
0L!
1W!
1_"
0)#
1'#
0(#
0t"
1W#
1M#
0L#
1N#
0o#
0X#
1Z#
0]!
0#"
01"
1H!
0n"
0p"
1I!
0M!
1N!
1s"
0o"
1q"
0\!
0n!
1i"
0D$
1k#
1=$
0H$
0>$
1@$
11$
14$
17$
0+!
0,!
1*!
1p"
0I!
1k"
0s"
1h!
1%"
1-"
0Q!
0R!
1`"
1r"
0q!
0|!
0*"
1j"
0D
0C
1B
0k"
0C$
1<#
1;#
1=#
0G$
1$$
1c#
0C#
0D#
0E#
09!
0:!
0;!
1i!
0s!
1&"
1."
0F"
0r!
0}!
0+"
0S
0R
0Q
1T#
1S#
1U#
1z#
0~#
0!$
1|#
0"$
1|
1~
0!#
0h!
0i!
1s!
0-"
0."
0%"
0&"
1F"
1'
1%
0z#
1!$
1D#
1~#
1C#
0|#
1"$
1E#
0u
02!
0t
01!
0v
03!
1A!
1B!
1C!
1!#
08
07
06
0K
0J
0I
1\
1[
1Z
0B!
0A!
0C!
0E!
0\
0[
0Z
0U
1E!
1U
